{
  "compilerOptions": {
    "target": "ES6",
    "module": "commonjs",
    "allowSyntheticDefaultImports": true,
    "baseUrl": "./src/",
    "checkJs": false,
    "paths": {
      "*": ["*"]
    }
  },
  "exclude": ["node_modules", "**/node_modules/*", "build"]
}
